{
  "Prompt": "↬",
  "Style": {
    "Basic":          ["on_default", "default"],
    "SavedSelection": ["bold", "on_yellow", "white"],
    "Selected":       ["on_green", "black"],
    "Query":          ["bold", "yellow"],
    "Matched":        ["on_black", "red"]
  }
}
